^C:\USERS\SHALI\DESKTOP\ASSIGNMENTS\MYPROJECT\NETWORKING3\AUTH\AUTH.CPP
/c /ZI /nologo /W3 /WX- /diagnostics:classic /sdl /Od /Oy- /D _MBCS /Gm /EHsc /RTC1 /MDd /GS /fp:precise /Zc:wchar_t /Zc:forScope /Zc:inline /Fo"DEBUG\\" /Fd"DEBUG\VC141.PDB" /Gd /TP /analyze- C:\USERS\SHALI\DESKTOP\ASSIGNMENTS\MYPROJECT\NETWORKING3\AUTH\AUTH.CPP
^C:\USERS\SHALI\DESKTOP\ASSIGNMENTS\MYPROJECT\NETWORKING3\AUTH\BUFFER.CPP
/c /ZI /nologo /W3 /WX- /diagnostics:classic /sdl /Od /Oy- /D _MBCS /Gm /EHsc /RTC1 /MDd /GS /fp:precise /Zc:wchar_t /Zc:forScope /Zc:inline /Fo"DEBUG\\" /Fd"DEBUG\VC141.PDB" /Gd /TP /analyze- C:\USERS\SHALI\DESKTOP\ASSIGNMENTS\MYPROJECT\NETWORKING3\AUTH\BUFFER.CPP
^C:\USERS\SHALI\DESKTOP\ASSIGNMENTS\MYPROJECT\NETWORKING3\AUTH\DATABASEHELPER.CPP
/c /ZI /nologo /W3 /WX- /diagnostics:classic /sdl /Od /Oy- /D _MBCS /Gm /EHsc /RTC1 /MDd /GS /fp:precise /Zc:wchar_t /Zc:forScope /Zc:inline /Fo"DEBUG\\" /Fd"DEBUG\VC141.PDB" /Gd /TP /analyze- C:\USERS\SHALI\DESKTOP\ASSIGNMENTS\MYPROJECT\NETWORKING3\AUTH\DATABASEHELPER.CPP
^C:\USERS\SHALI\DESKTOP\ASSIGNMENTS\MYPROJECT\NETWORKING3\AUTH\SHA256.CPP
/c /ZI /nologo /W3 /WX- /diagnostics:classic /sdl /Od /Oy- /D _MBCS /Gm /EHsc /RTC1 /MDd /GS /fp:precise /Zc:wchar_t /Zc:forScope /Zc:inline /Fo"DEBUG\\" /Fd"DEBUG\VC141.PDB" /Gd /TP /analyze- C:\USERS\SHALI\DESKTOP\ASSIGNMENTS\MYPROJECT\NETWORKING3\AUTH\SHA256.CPP
