^C:\USERS\SHALI\DESKTOP\ASSIGNMENTS\MYPROJECT\NETWORKING3\AUTH\DEBUG\AUTH.OBJ|C:\USERS\SHALI\DESKTOP\ASSIGNMENTS\MYPROJECT\NETWORKING3\AUTH\DEBUG\BUFFER.OBJ|C:\USERS\SHALI\DESKTOP\ASSIGNMENTS\MYPROJECT\NETWORKING3\AUTH\DEBUG\DATABASEHELPER.OBJ|C:\USERS\SHALI\DESKTOP\ASSIGNMENTS\MYPROJECT\NETWORKING3\AUTH\DEBUG\SHA256.OBJ
C:\WINDOWS\GLOBALIZATION\SORTING\SORTDEFAULT.NLS
C:\PROGRAM FILES (X86)\WINDOWS KITS\10\LIB\10.0.15063.0\UM\X86\KERNEL32.LIB
C:\PROGRAM FILES (X86)\WINDOWS KITS\10\LIB\10.0.15063.0\UM\X86\USER32.LIB
C:\PROGRAM FILES (X86)\WINDOWS KITS\10\LIB\10.0.15063.0\UM\X86\GDI32.LIB
C:\PROGRAM FILES (X86)\WINDOWS KITS\10\LIB\10.0.15063.0\UM\X86\WINSPOOL.LIB
C:\PROGRAM FILES (X86)\WINDOWS KITS\10\LIB\10.0.15063.0\UM\X86\COMDLG32.LIB
C:\PROGRAM FILES (X86)\WINDOWS KITS\10\LIB\10.0.15063.0\UM\X86\ADVAPI32.LIB
C:\PROGRAM FILES (X86)\WINDOWS KITS\10\LIB\10.0.15063.0\UM\X86\SHELL32.LIB
C:\PROGRAM FILES (X86)\WINDOWS KITS\10\LIB\10.0.15063.0\UM\X86\OLE32.LIB
C:\PROGRAM FILES (X86)\WINDOWS KITS\10\LIB\10.0.15063.0\UM\X86\OLEAUT32.LIB
C:\PROGRAM FILES (X86)\WINDOWS KITS\10\LIB\10.0.15063.0\UM\X86\UUID.LIB
C:\PROGRAM FILES (X86)\WINDOWS KITS\10\LIB\10.0.15063.0\UM\X86\ODBC32.LIB
C:\PROGRAM FILES (X86)\WINDOWS KITS\10\LIB\10.0.15063.0\UM\X86\ODBCCP32.LIB
C:\USERS\SHALI\DESKTOP\ASSIGNMENTS\MYPROJECT\NETWORKING3\AUTH\INCLUDE\MYSQLCPPCONN.LIB
C:\USERS\SHALI\DESKTOP\ASSIGNMENTS\MYPROJECT\NETWORKING3\AUTH\INCLUDE\LIBMYSQL.LIB
C:\USERS\SHALI\DESKTOP\ASSIGNMENTS\MYPROJECT\NETWORKING3\AUTH\DEBUG\AUTH.OBJ
C:\USERS\SHALI\DESKTOP\ASSIGNMENTS\MYPROJECT\NETWORKING3\AUTH\DEBUG\BUFFER.OBJ
C:\USERS\SHALI\DESKTOP\ASSIGNMENTS\MYPROJECT\NETWORKING3\AUTH\DEBUG\DATABASEHELPER.OBJ
C:\USERS\SHALI\DESKTOP\ASSIGNMENTS\MYPROJECT\NETWORKING3\AUTH\DEBUG\SHA256.OBJ
C:\WINDOWS\SYSTEM32\TZRES.DLL
C:\PROGRAM FILES (X86)\MICROSOFT VISUAL STUDIO\2017\COMMUNITY\VC\TOOLS\MSVC\14.11.25503\LIB\X86\MSVCPRTD.LIB
C:\PROGRAM FILES (X86)\WINDOWS KITS\10\LIB\10.0.15063.0\UM\X86\WS2_32.LIB
C:\PROGRAM FILES (X86)\WINDOWS KITS\10\LIB\10.0.15063.0\UM\X86\MSWSOCK.LIB
C:\PROGRAM FILES (X86)\MICROSOFT VISUAL STUDIO\2017\COMMUNITY\VC\TOOLS\MSVC\14.11.25503\LIB\X86\MSVCRTD.LIB
C:\PROGRAM FILES (X86)\MICROSOFT VISUAL STUDIO\2017\COMMUNITY\VC\TOOLS\MSVC\14.11.25503\LIB\X86\OLDNAMES.LIB
C:\PROGRAM FILES (X86)\MICROSOFT VISUAL STUDIO\2017\COMMUNITY\VC\TOOLS\MSVC\14.11.25503\LIB\X86\VCRUNTIMED.LIB
C:\PROGRAM FILES (X86)\WINDOWS KITS\10\LIB\10.0.15063.0\UCRT\X86\UCRTD.LIB
