﻿  Auth.cpp
c:\users\shali\desktop\assignments\myproject\networking3\auth\include\cppconn\sqlstring.h(39): warning C4251: 'sql::SQLString::realStr': class 'std::basic_string<char,std::char_traits<char>,std::allocator<char>>' needs to have dll-interface to be used by clients of class 'sql::SQLString'
  c:\program files (x86)\microsoft visual studio\2017\community\vc\tools\msvc\14.11.25503\include\xstring(4079): note: see declaration of 'std::basic_string<char,std::char_traits<char>,std::allocator<char>>'
c:\users\shali\desktop\assignments\myproject\networking3\auth\include\cppconn\exception.h(61): warning C4251: 'sql::SQLException::sql_state': class 'std::basic_string<char,std::char_traits<char>,std::allocator<char>>' needs to have dll-interface to be used by clients of class 'sql::SQLException'
  c:\program files (x86)\microsoft visual studio\2017\community\vc\tools\msvc\14.11.25503\include\xstring(4079): note: see declaration of 'std::basic_string<char,std::char_traits<char>,std::allocator<char>>'
c:\users\shali\desktop\assignments\myproject\networking3\auth\include\cppconn\exception.h(145): warning C4251: 'sql::SQLUnsupportedOptionException::option': class 'std::basic_string<char,std::char_traits<char>,std::allocator<char>>' needs to have dll-interface to be used by clients of struct 'sql::SQLUnsupportedOptionException'
  c:\program files (x86)\microsoft visual studio\2017\community\vc\tools\msvc\14.11.25503\include\xstring(4079): note: see declaration of 'std::basic_string<char,std::char_traits<char>,std::allocator<char>>'
c:\users\shali\desktop\assignments\myproject\networking3\auth\auth.cpp(79): warning C4018: '<': signed/unsigned mismatch
c:\users\shali\desktop\assignments\myproject\networking3\auth\auth.cpp(172): warning C4018: '<': signed/unsigned mismatch
c:\users\shali\desktop\assignments\myproject\networking3\auth\auth.cpp(454): warning C4018: '<': signed/unsigned mismatch
c:\users\shali\desktop\assignments\myproject\networking3\auth\auth.cpp(488): warning C4018: '<': signed/unsigned mismatch
c:\users\shali\desktop\assignments\myproject\networking3\auth\auth.cpp(647): warning C4018: '<': signed/unsigned mismatch
c:\users\shali\desktop\assignments\myproject\networking3\auth\auth.cpp(672): warning C4018: '<': signed/unsigned mismatch
c:\users\shali\desktop\assignments\myproject\networking3\auth\auth.cpp(693): warning C4018: '<': signed/unsigned mismatch
c:\users\shali\desktop\assignments\myproject\networking3\auth\auth.cpp(1144): warning C4244: 'argument': conversion from 'time_t' to 'unsigned int', possible loss of data
  Auth.vcxproj -> C:\Users\shali\Desktop\Assignments\MyProject\Networking3\Debug\Auth.exe
  Auth.vcxproj -> C:\Users\shali\Desktop\Assignments\MyProject\Networking3\Debug\Auth.pdb (Partial PDB)
